…
``` r
homicide$city_state = str_c(homicide$city, ", ", homicide$state)
```

### Summarize within cities to get the total number of homicides

(here using "city" variable to group\_by, because the number of distinct cities is 50 which matches the total number of cities and this means there are no any two cities having the same name)

``` r
homicide %>% 
  group_by(city) %>% 
  summarize(n_homicide = n())
```

    ## # A tibble: 50 x 2
    ##    city        n_homicide
    ##    <chr>            <int>
    ##  1 Albuquerque        378
    ##  2 Atlanta            973
    ##  3 Baltimore         2827
    ##  4 Baton Rouge        424
    ##  5 Birmingham         800
    ##  6 Boston             614
    ##  7 Buffalo            521
    ##  8 Charlotte          687
    ##  9 Chicago           5535
    ## 10 Cincinnati         694
    ## # ... with 40 more rows

### Summarize within cities to get the unsolved cases

``` r
homicide %>% 
  filter(disposition %in% c("Closed without arrest", "Open/No arrest")) %>%
  group_by(city) %>% 
  summarize(n_unsolved = n())
```

    ## # A tibble: 50 x 2
    ##    city        n_unsolved
    ##    <chr>            <int>
    ##  1 Albuquerque        146
    ##  2 Atlanta            373
    ##  3 Baltimore         1825
    ##  4 Baton Rouge        196
    ##  5 Birmingham         347
    ##  6 Boston             310
    ##  7 Buffalo            319
    ##  8 Charlotte          206
    ##  9 Chicago           4073
    ## 10 Cincinnati         309
    ## # ... with 40 more rows
…
